<?xml version="1.0" encoding="utf-8"?>
<!DOCTYPE eagle SYSTEM "eagle.dtd">
<eagle version="6.4">
<drawing>
<settings>
<setting alwaysvectorfont="no"/>
<setting verticaltext="up"/>
</settings>
<grid distance="0.1" unitdist="inch" unit="inch" style="lines" multiple="1" display="no" altdistance="0.01" altunitdist="inch" altunit="inch"/>
<layers>
<layer number="1" name="Top" color="4" fill="1" visible="no" active="no"/>
<layer number="16" name="Bottom" color="1" fill="1" visible="no" active="no"/>
<layer number="17" name="Pads" color="2" fill="1" visible="no" active="no"/>
<layer number="18" name="Vias" color="2" fill="1" visible="no" active="no"/>
<layer number="19" name="Unrouted" color="6" fill="1" visible="no" active="no"/>
<layer number="20" name="Dimension" color="15" fill="1" visible="no" active="no"/>
<layer number="21" name="tPlace" color="7" fill="1" visible="no" active="no"/>
<layer number="22" name="bPlace" color="7" fill="1" visible="no" active="no"/>
<layer number="23" name="tOrigins" color="15" fill="1" visible="no" active="no"/>
<layer number="24" name="bOrigins" color="15" fill="1" visible="no" active="no"/>
<layer number="25" name="tNames" color="7" fill="1" visible="no" active="no"/>
<layer number="26" name="bNames" color="7" fill="1" visible="no" active="no"/>
<layer number="27" name="tValues" color="7" fill="1" visible="no" active="no"/>
<layer number="28" name="bValues" color="7" fill="1" visible="no" active="no"/>
<layer number="29" name="tStop" color="7" fill="3" visible="no" active="no"/>
<layer number="30" name="bStop" color="7" fill="6" visible="no" active="no"/>
<layer number="31" name="tCream" color="7" fill="4" visible="no" active="no"/>
<layer number="32" name="bCream" color="7" fill="5" visible="no" active="no"/>
<layer number="33" name="tFinish" color="6" fill="3" visible="no" active="no"/>
<layer number="34" name="bFinish" color="6" fill="6" visible="no" active="no"/>
<layer number="35" name="tGlue" color="7" fill="4" visible="no" active="no"/>
<layer number="36" name="bGlue" color="7" fill="5" visible="no" active="no"/>
<layer number="37" name="tTest" color="7" fill="1" visible="no" active="no"/>
<layer number="38" name="bTest" color="7" fill="1" visible="no" active="no"/>
<layer number="39" name="tKeepout" color="4" fill="11" visible="no" active="no"/>
<layer number="40" name="bKeepout" color="1" fill="11" visible="no" active="no"/>
<layer number="41" name="tRestrict" color="4" fill="10" visible="no" active="no"/>
<layer number="42" name="bRestrict" color="1" fill="10" visible="no" active="no"/>
<layer number="43" name="vRestrict" color="2" fill="10" visible="no" active="no"/>
<layer number="44" name="Drills" color="7" fill="1" visible="no" active="no"/>
<layer number="45" name="Holes" color="7" fill="1" visible="no" active="no"/>
<layer number="46" name="Milling" color="3" fill="1" visible="no" active="no"/>
<layer number="47" name="Measures" color="7" fill="1" visible="no" active="no"/>
<layer number="48" name="Document" color="7" fill="1" visible="no" active="no"/>
<layer number="49" name="Reference" color="7" fill="1" visible="no" active="no"/>
<layer number="51" name="tDocu" color="7" fill="1" visible="no" active="no"/>
<layer number="52" name="bDocu" color="7" fill="1" visible="no" active="no"/>
<layer number="91" name="Nets" color="2" fill="1" visible="yes" active="yes"/>
<layer number="92" name="Busses" color="1" fill="1" visible="yes" active="yes"/>
<layer number="93" name="Pins" color="2" fill="1" visible="no" active="yes"/>
<layer number="94" name="Symbols" color="4" fill="1" visible="yes" active="yes"/>
<layer number="95" name="Names" color="7" fill="1" visible="yes" active="yes"/>
<layer number="96" name="Values" color="7" fill="1" visible="yes" active="yes"/>
<layer number="97" name="Info" color="7" fill="1" visible="yes" active="yes"/>
<layer number="98" name="Guide" color="6" fill="1" visible="yes" active="yes"/>
</layers>
<schematic xreflabel="%F%N/%S.%C%R" xrefpart="/%S.%C%R">
<libraries>
<library name="wirepad">
<description>&lt;b&gt;Single Pads&lt;/b&gt;&lt;p&gt;
&lt;author&gt;Created by librarian@cadsoft.de&lt;/author&gt;</description>
<packages>
<package name="1,6/0,8">
<description>&lt;b&gt;THROUGH-HOLE PAD&lt;/b&gt;</description>
<wire x1="-0.762" y1="0.762" x2="-0.508" y2="0.762" width="0.1524" layer="21"/>
<wire x1="-0.762" y1="0.762" x2="-0.762" y2="0.508" width="0.1524" layer="21"/>
<wire x1="0.762" y1="0.762" x2="0.762" y2="0.508" width="0.1524" layer="21"/>
<wire x1="0.762" y1="0.762" x2="0.508" y2="0.762" width="0.1524" layer="21"/>
<wire x1="0.762" y1="-0.508" x2="0.762" y2="-0.762" width="0.1524" layer="21"/>
<wire x1="0.762" y1="-0.762" x2="0.508" y2="-0.762" width="0.1524" layer="21"/>
<wire x1="-0.508" y1="-0.762" x2="-0.762" y2="-0.762" width="0.1524" layer="21"/>
<wire x1="-0.762" y1="-0.762" x2="-0.762" y2="-0.508" width="0.1524" layer="21"/>
<circle x="0" y="0" radius="0.635" width="0.1524" layer="51"/>
<pad name="1" x="0" y="0" drill="0.8128" diameter="1.6002" shape="octagon"/>
<text x="-0.762" y="1.016" size="1.27" layer="25" ratio="10">&gt;NAME</text>
<text x="0" y="0.6" size="0.0254" layer="27">&gt;VALUE</text>
</package>
<package name="1,6/0,9">
<description>&lt;b&gt;THROUGH-HOLE PAD&lt;/b&gt;</description>
<wire x1="-0.508" y1="0.762" x2="-0.762" y2="0.762" width="0.1524" layer="21"/>
<wire x1="-0.762" y1="0.762" x2="-0.762" y2="0.508" width="0.1524" layer="21"/>
<wire x1="-0.762" y1="-0.508" x2="-0.762" y2="-0.762" width="0.1524" layer="21"/>
<wire x1="-0.762" y1="-0.762" x2="-0.508" y2="-0.762" width="0.1524" layer="21"/>
<wire x1="0.508" y1="-0.762" x2="0.762" y2="-0.762" width="0.1524" layer="21"/>
<wire x1="0.762" y1="-0.762" x2="0.762" y2="-0.508" width="0.1524" layer="21"/>
<wire x1="0.762" y1="0.508" x2="0.762" y2="0.762" width="0.1524" layer="21"/>
<wire x1="0.762" y1="0.762" x2="0.508" y2="0.762" width="0.1524" layer="21"/>
<circle x="0" y="0" radius="0.635" width="0.1524" layer="51"/>
<pad name="1" x="0" y="0" drill="0.9144" diameter="1.6002" shape="octagon"/>
<text x="-0.762" y="1.016" size="1.27" layer="25" ratio="10">&gt;NAME</text>
<text x="0" y="0.6" size="0.0254" layer="27">&gt;VALUE</text>
</package>
<package name="2,15/1,0">
<description>&lt;b&gt;THROUGH-HOLE PAD&lt;/b&gt;</description>
<wire x1="1.143" y1="-1.143" x2="1.143" y2="-0.635" width="0.1524" layer="21"/>
<wire x1="1.143" y1="-1.143" x2="0.635" y2="-1.143" width="0.1524" layer="21"/>
<wire x1="1.143" y1="0.635" x2="1.143" y2="1.143" width="0.1524" layer="21"/>
<wire x1="1.143" y1="1.143" x2="0.635" y2="1.143" width="0.1524" layer="21"/>
<wire x1="-0.635" y1="1.143" x2="-1.143" y2="1.143" width="0.1524" layer="21"/>
<wire x1="-1.143" y1="1.143" x2="-1.143" y2="0.635" width="0.1524" layer="21"/>
<wire x1="-1.143" y1="-0.635" x2="-1.143" y2="-1.143" width="0.1524" layer="21"/>
<wire x1="-1.143" y1="-1.143" x2="-0.635" y2="-1.143" width="0.1524" layer="21"/>
<circle x="0" y="0" radius="1.016" width="0.1524" layer="51"/>
<pad name="1" x="0" y="0" drill="1.016" diameter="2.159" shape="octagon"/>
<text x="-1.143" y="1.397" size="1.27" layer="25" ratio="10">&gt;NAME</text>
<text x="0" y="1" size="0.0254" layer="27">&gt;VALUE</text>
</package>
<package name="2,54/0,8">
<description>&lt;b&gt;THROUGH-HOLE PAD&lt;/b&gt;</description>
<wire x1="-1.27" y1="1.27" x2="-0.762" y2="1.27" width="0.1524" layer="21"/>
<wire x1="-1.27" y1="1.27" x2="-1.27" y2="0.762" width="0.1524" layer="21"/>
<wire x1="1.27" y1="1.27" x2="1.27" y2="0.762" width="0.1524" layer="21"/>
<wire x1="1.27" y1="1.27" x2="0.762" y2="1.27" width="0.1524" layer="21"/>
<wire x1="1.27" y1="-0.762" x2="1.27" y2="-1.27" width="0.1524" layer="21"/>
<wire x1="1.27" y1="-1.27" x2="0.762" y2="-1.27" width="0.1524" layer="21"/>
<wire x1="-0.762" y1="-1.27" x2="-1.27" y2="-1.27" width="0.1524" layer="21"/>
<wire x1="-1.27" y1="-1.27" x2="-1.27" y2="-0.762" width="0.1524" layer="21"/>
<circle x="0" y="0" radius="0.635" width="0.1524" layer="51"/>
<pad name="1" x="0" y="0" drill="0.8128" diameter="2.54" shape="octagon"/>
<text x="-1.27" y="1.524" size="1.27" layer="25" ratio="10">&gt;NAME</text>
<text x="0" y="0.6" size="0.0254" layer="27">&gt;VALUE</text>
</package>
<package name="2,54/0,9">
<description>&lt;b&gt;THROUGH-HOLE PAD&lt;/b&gt;</description>
<wire x1="-1.27" y1="1.27" x2="-0.762" y2="1.27" width="0.1524" layer="21"/>
<wire x1="-1.27" y1="1.27" x2="-1.27" y2="0.762" width="0.1524" layer="21"/>
<wire x1="1.27" y1="1.27" x2="1.27" y2="0.762" width="0.1524" layer="21"/>
<wire x1="1.27" y1="1.27" x2="0.762" y2="1.27" width="0.1524" layer="21"/>
<wire x1="1.27" y1="-0.762" x2="1.27" y2="-1.27" width="0.1524" layer="21"/>
<wire x1="1.27" y1="-1.27" x2="0.762" y2="-1.27" width="0.1524" layer="21"/>
<wire x1="-0.762" y1="-1.27" x2="-1.27" y2="-1.27" width="0.1524" layer="21"/>
<wire x1="-1.27" y1="-1.27" x2="-1.27" y2="-0.762" width="0.1524" layer="21"/>
<circle x="0" y="0" radius="0.635" width="0.1524" layer="51"/>
<pad name="1" x="0" y="0" drill="0.9144" diameter="2.54" shape="octagon"/>
<text x="-1.27" y="1.524" size="1.27" layer="25" ratio="10">&gt;NAME</text>
<text x="0" y="0.6" size="0.0254" layer="27">&gt;VALUE</text>
</package>
<package name="2,54/1,0">
<description>&lt;b&gt;THROUGH-HOLE PAD&lt;/b&gt;</description>
<wire x1="1.27" y1="1.27" x2="1.27" y2="0.762" width="0.1524" layer="21"/>
<wire x1="1.27" y1="1.27" x2="0.762" y2="1.27" width="0.1524" layer="21"/>
<wire x1="-1.27" y1="1.27" x2="-0.762" y2="1.27" width="0.1524" layer="21"/>
<wire x1="-1.27" y1="1.27" x2="-1.27" y2="0.762" width="0.1524" layer="21"/>
<wire x1="-1.27" y1="-1.27" x2="-1.27" y2="-0.762" width="0.1524" layer="21"/>
<wire x1="-1.27" y1="-1.27" x2="-0.762" y2="-1.27" width="0.1524" layer="21"/>
<wire x1="0.762" y1="-1.27" x2="1.27" y2="-1.27" width="0.1524" layer="21"/>
<wire x1="1.27" y1="-1.27" x2="1.27" y2="-0.762" width="0.1524" layer="21"/>
<circle x="0" y="0" radius="1.016" width="0.1524" layer="51"/>
<pad name="1" x="0" y="0" drill="1.016" diameter="2.54" shape="octagon"/>
<text x="-1.27" y="1.524" size="1.27" layer="25" ratio="10">&gt;NAME</text>
<text x="0" y="1" size="0.0254" layer="27">&gt;VALUE</text>
</package>
<package name="2,54/1,1">
<description>&lt;b&gt;THROUGH-HOLE PAD&lt;/b&gt;</description>
<wire x1="1.27" y1="1.27" x2="1.27" y2="0.762" width="0.1524" layer="21"/>
<wire x1="1.27" y1="1.27" x2="0.762" y2="1.27" width="0.1524" layer="21"/>
<wire x1="-1.27" y1="1.27" x2="-1.27" y2="0.762" width="0.1524" layer="21"/>
<wire x1="-1.27" y1="1.27" x2="-0.762" y2="1.27" width="0.1524" layer="21"/>
<wire x1="-1.27" y1="-1.27" x2="-1.27" y2="-0.762" width="0.1524" layer="21"/>
<wire x1="-1.27" y1="-1.27" x2="-0.762" y2="-1.27" width="0.1524" layer="21"/>
<wire x1="1.27" y1="-1.27" x2="0.762" y2="-1.27" width="0.1524" layer="21"/>
<wire x1="1.27" y1="-1.27" x2="1.27" y2="-0.762" width="0.1524" layer="21"/>
<circle x="0" y="0" radius="1.016" width="0.1524" layer="51"/>
<pad name="1" x="0" y="0" drill="1.1176" diameter="2.54" shape="octagon"/>
<text x="-1.27" y="1.524" size="1.27" layer="25" ratio="10">&gt;NAME</text>
<text x="0" y="1" size="0.0254" layer="27">&gt;VALUE</text>
</package>
<package name="3,17/1,1">
<description>&lt;b&gt;THROUGH-HOLE PAD&lt;/b&gt;</description>
<wire x1="1.524" y1="-1.016" x2="1.524" y2="-1.524" width="0.1524" layer="21"/>
<wire x1="1.524" y1="-1.524" x2="1.016" y2="-1.524" width="0.1524" layer="21"/>
<wire x1="-1.016" y1="-1.524" x2="-1.524" y2="-1.524" width="0.1524" layer="21"/>
<wire x1="-1.524" y1="-1.524" x2="-1.524" y2="-1.016" width="0.1524" layer="21"/>
<wire x1="-1.524" y1="1.016" x2="-1.524" y2="1.524" width="0.1524" layer="21"/>
<wire x1="-1.524" y1="1.524" x2="-1.016" y2="1.524" width="0.1524" layer="21"/>
<wire x1="1.016" y1="1.524" x2="1.524" y2="1.524" width="0.1524" layer="21"/>
<wire x1="1.524" y1="1.524" x2="1.524" y2="1.016" width="0.1524" layer="21"/>
<circle x="0" y="0" radius="1.27" width="0.1524" layer="51"/>
<pad name="1" x="0" y="0" drill="1.1176" diameter="3.175" shape="octagon"/>
<text x="-1.524" y="1.905" size="1.27" layer="25" ratio="10">&gt;NAME</text>
<text x="0" y="1.2" size="0.0254" layer="27">&gt;VALUE</text>
</package>
<package name="3,17/1,2">
<description>&lt;b&gt;THROUGH-HOLE PAD&lt;/b&gt;</description>
<wire x1="1.524" y1="-1.016" x2="1.524" y2="-1.524" width="0.1524" layer="21"/>
<wire x1="1.524" y1="-1.524" x2="1.016" y2="-1.524" width="0.1524" layer="21"/>
<wire x1="-1.016" y1="-1.524" x2="-1.524" y2="-1.524" width="0.1524" layer="21"/>
<wire x1="-1.524" y1="-1.524" x2="-1.524" y2="-1.016" width="0.1524" layer="21"/>
<wire x1="-1.524" y1="1.016" x2="-1.524" y2="1.524" width="0.1524" layer="21"/>
<wire x1="-1.524" y1="1.524" x2="-1.016" y2="1.524" width="0.1524" layer="21"/>
<wire x1="1.016" y1="1.524" x2="1.524" y2="1.524" width="0.1524" layer="21"/>
<wire x1="1.524" y1="1.524" x2="1.524" y2="1.016" width="0.1524" layer="21"/>
<circle x="0" y="0" radius="1.27" width="0.1524" layer="51"/>
<pad name="1" x="0" y="0" drill="1.1938" diameter="3.175" shape="octagon"/>
<text x="-1.524" y="1.905" size="1.27" layer="25" ratio="10">&gt;NAME</text>
<text x="0" y="1.2" size="0.0254" layer="27">&gt;VALUE</text>
</package>
<package name="3,17/1,3">
<description>&lt;b&gt;THROUGH-HOLE PAD&lt;/b&gt;</description>
<wire x1="1.524" y1="-1.016" x2="1.524" y2="-1.524" width="0.1524" layer="21"/>
<wire x1="1.524" y1="-1.524" x2="1.016" y2="-1.524" width="0.1524" layer="21"/>
<wire x1="-1.016" y1="-1.524" x2="-1.524" y2="-1.524" width="0.1524" layer="21"/>
<wire x1="-1.524" y1="-1.524" x2="-1.524" y2="-1.016" width="0.1524" layer="21"/>
<wire x1="-1.524" y1="1.016" x2="-1.524" y2="1.524" width="0.1524" layer="21"/>
<wire x1="-1.524" y1="1.524" x2="-1.016" y2="1.524" width="0.1524" layer="21"/>
<wire x1="1.016" y1="1.524" x2="1.524" y2="1.524" width="0.1524" layer="21"/>
<wire x1="1.524" y1="1.524" x2="1.524" y2="1.016" width="0.1524" layer="21"/>
<circle x="0" y="0" radius="1.27" width="0.1524" layer="51"/>
<pad name="1" x="0" y="0" drill="1.3208" diameter="3.175" shape="octagon"/>
<text x="-1.524" y="1.905" size="1.27" layer="25" ratio="10">&gt;NAME</text>
<text x="0" y="1.2" size="0.0254" layer="27">&gt;VALUE</text>
</package>
<package name="3,81/1,1">
<description>&lt;b&gt;THROUGH-HOLE PAD&lt;/b&gt;</description>
<wire x1="1.905" y1="-1.27" x2="1.905" y2="-1.905" width="0.1524" layer="21"/>
<wire x1="1.905" y1="-1.905" x2="1.27" y2="-1.905" width="0.1524" layer="21"/>
<wire x1="-1.27" y1="-1.905" x2="-1.905" y2="-1.905" width="0.1524" layer="21"/>
<wire x1="-1.905" y1="-1.905" x2="-1.905" y2="-1.27" width="0.1524" layer="21"/>
<wire x1="-1.905" y1="1.27" x2="-1.905" y2="1.905" width="0.1524" layer="21"/>
<wire x1="-1.905" y1="1.905" x2="-1.27" y2="1.905" width="0.1524" layer="21"/>
<wire x1="1.27" y1="1.905" x2="1.905" y2="1.905" width="0.1524" layer="21"/>
<wire x1="1.905" y1="1.905" x2="1.905" y2="1.27" width="0.1524" layer="21"/>
<circle x="0" y="0" radius="1.27" width="0.1524" layer="51"/>
<pad name="1" x="0" y="0" drill="1.1176" diameter="3.81" shape="octagon"/>
<text x="-1.905" y="2.286" size="1.27" layer="25" ratio="10">&gt;NAME</text>
<text x="0" y="1.2" size="0.0254" layer="27">&gt;VALUE</text>
</package>
<package name="3,81/1,3">
<description>&lt;b&gt;THROUGH-HOLE PAD&lt;/b&gt;</description>
<wire x1="1.905" y1="-1.27" x2="1.905" y2="-1.905" width="0.1524" layer="21"/>
<wire x1="1.905" y1="-1.905" x2="1.27" y2="-1.905" width="0.1524" layer="21"/>
<wire x1="-1.27" y1="-1.905" x2="-1.905" y2="-1.905" width="0.1524" layer="21"/>
<wire x1="-1.905" y1="-1.905" x2="-1.905" y2="-1.27" width="0.1524" layer="21"/>
<wire x1="-1.905" y1="1.27" x2="-1.905" y2="1.905" width="0.1524" layer="21"/>
<wire x1="-1.905" y1="1.905" x2="-1.27" y2="1.905" width="0.1524" layer="21"/>
<wire x1="1.27" y1="1.905" x2="1.905" y2="1.905" width="0.1524" layer="21"/>
<wire x1="1.905" y1="1.905" x2="1.905" y2="1.27" width="0.1524" layer="21"/>
<circle x="0" y="0" radius="1.27" width="0.1524" layer="51"/>
<pad name="1" x="0" y="0" drill="1.3208" diameter="3.81" shape="octagon"/>
<text x="-1.905" y="2.286" size="1.27" layer="25" ratio="10">&gt;NAME</text>
<text x="0" y="1.2" size="0.0254" layer="27">&gt;VALUE</text>
</package>
<package name="3,81/1,4">
<description>&lt;b&gt;THROUGH-HOLE PAD&lt;/b&gt;</description>
<wire x1="1.905" y1="-1.27" x2="1.905" y2="-1.905" width="0.1524" layer="21"/>
<wire x1="1.905" y1="-1.905" x2="1.27" y2="-1.905" width="0.1524" layer="21"/>
<wire x1="-1.27" y1="-1.905" x2="-1.905" y2="-1.905" width="0.1524" layer="21"/>
<wire x1="-1.905" y1="-1.905" x2="-1.905" y2="-1.27" width="0.1524" layer="21"/>
<wire x1="-1.905" y1="1.27" x2="-1.905" y2="1.905" width="0.1524" layer="21"/>
<wire x1="-1.905" y1="1.905" x2="-1.27" y2="1.905" width="0.1524" layer="21"/>
<wire x1="1.27" y1="1.905" x2="1.905" y2="1.905" width="0.1524" layer="21"/>
<wire x1="1.905" y1="1.905" x2="1.905" y2="1.27" width="0.1524" layer="21"/>
<circle x="0" y="0" radius="1.27" width="0.1524" layer="51"/>
<pad name="1" x="0" y="0" drill="1.397" diameter="3.81" shape="octagon"/>
<text x="-1.905" y="2.286" size="1.27" layer="25" ratio="10">&gt;NAME</text>
<text x="0" y="1.2" size="0.0254" layer="27">&gt;VALUE</text>
</package>
<package name="4,16O1,6">
<description>&lt;b&gt;THROUGH-HOLE PAD&lt;/b&gt;</description>
<pad name="1" x="0" y="0" drill="1.6002" diameter="4.1656" shape="octagon"/>
<text x="0" y="0" size="0.0254" layer="27">&gt;VALUE</text>
<text x="-2.1" y="2.2" size="1.27" layer="25">&gt;NAME</text>
</package>
<package name="5-1,8">
<description>&lt;b&gt;THROUGH-HOLE PAD&lt;/b&gt;</description>
<wire x1="1.1684" y1="2.794" x2="-1.1684" y2="2.794" width="0.1524" layer="21"/>
<wire x1="-1.1684" y1="-2.794" x2="-1.1684" y2="2.794" width="0.1524" layer="21"/>
<wire x1="-1.1684" y1="-2.794" x2="1.1684" y2="-2.794" width="0.1524" layer="21"/>
<wire x1="1.1684" y1="2.794" x2="1.1684" y2="-2.794" width="0.1524" layer="21"/>
<smd name="1" x="0" y="0" dx="1.8288" dy="5.08" layer="1"/>
<text x="-1.524" y="-2.54" size="1.27" layer="25" ratio="10" rot="R90">&gt;NAME</text>
<text x="-0.1" y="2.8" size="0.0254" layer="27">&gt;VALUE</text>
</package>
<package name="5-2,5">
<description>&lt;b&gt;THROUGH-HOLE PAD&lt;/b&gt;</description>
<wire x1="1.524" y1="2.794" x2="-1.524" y2="2.794" width="0.1524" layer="21"/>
<wire x1="-1.524" y1="-2.794" x2="-1.524" y2="2.794" width="0.1524" layer="21"/>
<wire x1="-1.524" y1="-2.794" x2="1.524" y2="-2.794" width="0.1524" layer="21"/>
<wire x1="1.524" y1="2.794" x2="1.524" y2="-2.794" width="0.1524" layer="21"/>
<smd name="1" x="0" y="0" dx="2.54" dy="5.08" layer="1"/>
<text x="-1.778" y="-2.54" size="1.27" layer="25" ratio="10" rot="R90">&gt;NAME</text>
<text x="-0.1" y="2.8" size="0.0254" layer="27">&gt;VALUE</text>
</package>
<package name="SMD1,27-2,54">
<description>&lt;b&gt;SMD PAD&lt;/b&gt;</description>
<smd name="1" x="0" y="0" dx="1.27" dy="2.54" layer="1"/>
<text x="0" y="0" size="0.0254" layer="27">&gt;VALUE</text>
<text x="-0.8" y="-2.4" size="1.27" layer="25" rot="R90">&gt;NAME</text>
</package>
<package name="SMD2,54-5,08">
<description>&lt;b&gt;SMD PAD&lt;/b&gt;</description>
<smd name="1" x="0" y="0" dx="2.54" dy="5.08" layer="1"/>
<text x="0" y="0" size="0.0254" layer="27">&gt;VALUE</text>
<text x="-1.5" y="-2.5" size="1.27" layer="25" rot="R90">&gt;NAME</text>
</package>
</packages>
<symbols>
<symbol name="PAD">
<wire x1="-1.016" y1="1.016" x2="1.016" y2="-1.016" width="0.254" layer="94"/>
<wire x1="-1.016" y1="-1.016" x2="1.016" y2="1.016" width="0.254" layer="94"/>
<text x="-1.143" y="1.8542" size="1.778" layer="95">&gt;NAME</text>
<text x="-1.143" y="-3.302" size="1.778" layer="96">&gt;VALUE</text>
<pin name="P" x="2.54" y="0" visible="off" length="short" direction="pas" rot="R180"/>
</symbol>
</symbols>
<devicesets>
<deviceset name="WIREPAD" prefix="PAD">
<description>&lt;b&gt;Wire PAD&lt;/b&gt; connect wire on PCB</description>
<gates>
<gate name="G$1" symbol="PAD" x="0" y="0"/>
</gates>
<devices>
<device name="1,6/0,8" package="1,6/0,8">
<connects>
<connect gate="G$1" pin="P" pad="1"/>
</connects>
<technologies>
<technology name=""/>
</technologies>
</device>
<device name="1,6/0,9" package="1,6/0,9">
<connects>
<connect gate="G$1" pin="P" pad="1"/>
</connects>
<technologies>
<technology name=""/>
</technologies>
</device>
<device name="2,15/1,0" package="2,15/1,0">
<connects>
<connect gate="G$1" pin="P" pad="1"/>
</connects>
<technologies>
<technology name=""/>
</technologies>
</device>
<device name="2,54/0,8" package="2,54/0,8">
<connects>
<connect gate="G$1" pin="P" pad="1"/>
</connects>
<technologies>
<technology name=""/>
</technologies>
</device>
<device name="2,54/0,9" package="2,54/0,9">
<connects>
<connect gate="G$1" pin="P" pad="1"/>
</connects>
<technologies>
<technology name=""/>
</technologies>
</device>
<device name="2,54/1,0" package="2,54/1,0">
<connects>
<connect gate="G$1" pin="P" pad="1"/>
</connects>
<technologies>
<technology name=""/>
</technologies>
</device>
<device name="2,54/1,1" package="2,54/1,1">
<connects>
<connect gate="G$1" pin="P" pad="1"/>
</connects>
<technologies>
<technology name=""/>
</technologies>
</device>
<device name="3,17/1,1" package="3,17/1,1">
<connects>
<connect gate="G$1" pin="P" pad="1"/>
</connects>
<technologies>
<technology name=""/>
</technologies>
</device>
<device name="3,17/1,2" package="3,17/1,2">
<connects>
<connect gate="G$1" pin="P" pad="1"/>
</connects>
<technologies>
<technology name=""/>
</technologies>
</device>
<device name="3,17/1,3" package="3,17/1,3">
<connects>
<connect gate="G$1" pin="P" pad="1"/>
</connects>
<technologies>
<technology name=""/>
</technologies>
</device>
<device name="3,81/1,1" package="3,81/1,1">
<connects>
<connect gate="G$1" pin="P" pad="1"/>
</connects>
<technologies>
<technology name=""/>
</technologies>
</device>
<device name="3,81/1,3" package="3,81/1,3">
<connects>
<connect gate="G$1" pin="P" pad="1"/>
</connects>
<technologies>
<technology name=""/>
</technologies>
</device>
<device name="3,81/1,4" package="3,81/1,4">
<connects>
<connect gate="G$1" pin="P" pad="1"/>
</connects>
<technologies>
<technology name=""/>
</technologies>
</device>
<device name="4,16O1,6" package="4,16O1,6">
<connects>
<connect gate="G$1" pin="P" pad="1"/>
</connects>
<technologies>
<technology name=""/>
</technologies>
</device>
<device name="SMD5-1,8" package="5-1,8">
<connects>
<connect gate="G$1" pin="P" pad="1"/>
</connects>
<technologies>
<technology name=""/>
</technologies>
</device>
<device name="SMD5-2,5" package="5-2,5">
<connects>
<connect gate="G$1" pin="P" pad="1"/>
</connects>
<technologies>
<technology name=""/>
</technologies>
</device>
<device name="SMD1,27-254" package="SMD1,27-2,54">
<connects>
<connect gate="G$1" pin="P" pad="1"/>
</connects>
<technologies>
<technology name=""/>
</technologies>
</device>
<device name="SMD2,54-5,08" package="SMD2,54-5,08">
<connects>
<connect gate="G$1" pin="P" pad="1"/>
</connects>
<technologies>
<technology name=""/>
</technologies>
</device>
</devices>
</deviceset>
</devicesets>
</library>
<library name="switch-omron">
<description>&lt;b&gt;Omron Switches&lt;/b&gt;&lt;p&gt;
&lt;author&gt;Created by librarian@cadsoft.de&lt;/author&gt;</description>
<packages>
<package name="B3F-10XX">
<description>&lt;b&gt;OMRON SWITCH&lt;/b&gt;</description>
<wire x1="3.302" y1="-0.762" x2="3.048" y2="-0.762" width="0.1524" layer="21"/>
<wire x1="3.302" y1="-0.762" x2="3.302" y2="0.762" width="0.1524" layer="21"/>
<wire x1="3.048" y1="0.762" x2="3.302" y2="0.762" width="0.1524" layer="21"/>
<wire x1="3.048" y1="1.016" x2="3.048" y2="2.54" width="0.1524" layer="51"/>
<wire x1="-3.302" y1="0.762" x2="-3.048" y2="0.762" width="0.1524" layer="21"/>
<wire x1="-3.302" y1="0.762" x2="-3.302" y2="-0.762" width="0.1524" layer="21"/>
<wire x1="-3.048" y1="-0.762" x2="-3.302" y2="-0.762" width="0.1524" layer="21"/>
<wire x1="3.048" y1="2.54" x2="2.54" y2="3.048" width="0.1524" layer="51"/>
<wire x1="2.54" y1="-3.048" x2="3.048" y2="-2.54" width="0.1524" layer="51"/>
<wire x1="3.048" y1="-2.54" x2="3.048" y2="-1.016" width="0.1524" layer="51"/>
<wire x1="-2.54" y1="3.048" x2="-3.048" y2="2.54" width="0.1524" layer="51"/>
<wire x1="-3.048" y1="2.54" x2="-3.048" y2="1.016" width="0.1524" layer="51"/>
<wire x1="-2.54" y1="-3.048" x2="-3.048" y2="-2.54" width="0.1524" layer="51"/>
<wire x1="-3.048" y1="-2.54" x2="-3.048" y2="-1.016" width="0.1524" layer="51"/>
<wire x1="-1.27" y1="1.27" x2="-1.27" y2="-1.27" width="0.0508" layer="51"/>
<wire x1="1.27" y1="-1.27" x2="-1.27" y2="-1.27" width="0.0508" layer="51"/>
<wire x1="1.27" y1="-1.27" x2="1.27" y2="1.27" width="0.0508" layer="51"/>
<wire x1="-1.27" y1="1.27" x2="1.27" y2="1.27" width="0.0508" layer="51"/>
<wire x1="-1.27" y1="3.048" x2="-1.27" y2="2.794" width="0.0508" layer="21"/>
<wire x1="1.27" y1="2.794" x2="-1.27" y2="2.794" width="0.0508" layer="21"/>
<wire x1="1.27" y1="2.794" x2="1.27" y2="3.048" width="0.0508" layer="21"/>
<wire x1="1.143" y1="-2.794" x2="-1.27" y2="-2.794" width="0.0508" layer="21"/>
<wire x1="1.143" y1="-2.794" x2="1.143" y2="-3.048" width="0.0508" layer="21"/>
<wire x1="-1.27" y1="-2.794" x2="-1.27" y2="-3.048" width="0.0508" layer="21"/>
<wire x1="2.54" y1="-3.048" x2="2.159" y2="-3.048" width="0.1524" layer="51"/>
<wire x1="-2.54" y1="-3.048" x2="-2.159" y2="-3.048" width="0.1524" layer="51"/>
<wire x1="-2.159" y1="-3.048" x2="-1.27" y2="-3.048" width="0.1524" layer="21"/>
<wire x1="-2.54" y1="3.048" x2="-2.159" y2="3.048" width="0.1524" layer="51"/>
<wire x1="2.54" y1="3.048" x2="2.159" y2="3.048" width="0.1524" layer="51"/>
<wire x1="2.159" y1="3.048" x2="1.27" y2="3.048" width="0.1524" layer="21"/>
<wire x1="1.27" y1="3.048" x2="-1.27" y2="3.048" width="0.1524" layer="21"/>
<wire x1="-1.27" y1="3.048" x2="-2.159" y2="3.048" width="0.1524" layer="21"/>
<wire x1="-1.27" y1="-3.048" x2="1.143" y2="-3.048" width="0.1524" layer="21"/>
<wire x1="1.143" y1="-3.048" x2="2.159" y2="-3.048" width="0.1524" layer="21"/>
<wire x1="3.048" y1="-0.762" x2="3.048" y2="-1.016" width="0.1524" layer="21"/>
<wire x1="3.048" y1="0.762" x2="3.048" y2="1.016" width="0.1524" layer="21"/>
<wire x1="-3.048" y1="-0.762" x2="-3.048" y2="-1.016" width="0.1524" layer="21"/>
<wire x1="-3.048" y1="0.762" x2="-3.048" y2="1.016" width="0.1524" layer="21"/>
<wire x1="-1.27" y1="-2.159" x2="1.27" y2="-2.159" width="0.1524" layer="51"/>
<wire x1="1.27" y1="2.286" x2="-1.27" y2="2.286" width="0.1524" layer="51"/>
<wire x1="-2.413" y1="1.27" x2="-2.413" y2="0.508" width="0.1524" layer="51"/>
<wire x1="-2.413" y1="-0.508" x2="-2.413" y2="-1.27" width="0.1524" layer="51"/>
<wire x1="-2.413" y1="0.508" x2="-2.159" y2="-0.381" width="0.1524" layer="51"/>
<circle x="0" y="0" radius="1.778" width="0.1524" layer="21"/>
<circle x="-2.159" y="-2.159" radius="0.508" width="0.1524" layer="51"/>
<circle x="2.159" y="-2.032" radius="0.508" width="0.1524" layer="51"/>
<circle x="2.159" y="2.159" radius="0.508" width="0.1524" layer="51"/>
<circle x="-2.159" y="2.159" radius="0.508" width="0.1524" layer="51"/>
<circle x="0" y="0" radius="0.635" width="0.0508" layer="51"/>
<circle x="0" y="0" radius="0.254" width="0.1524" layer="21"/>
<pad name="1" x="-3.2512" y="2.2606" drill="1.016" shape="long"/>
<pad name="3" x="-3.2512" y="-2.2606" drill="1.016" shape="long"/>
<pad name="2" x="3.2512" y="2.2606" drill="1.016" shape="long"/>
<pad name="4" x="3.2512" y="-2.2606" drill="1.016" shape="long"/>
<text x="-3.048" y="3.683" size="1.27" layer="25" ratio="10">&gt;NAME</text>
<text x="-3.048" y="-5.08" size="1.27" layer="27" ratio="10">&gt;VALUE</text>
<text x="-4.318" y="1.651" size="1.27" layer="51" ratio="10">1</text>
<text x="3.556" y="1.524" size="1.27" layer="51" ratio="10">2</text>
<text x="-4.572" y="-2.794" size="1.27" layer="51" ratio="10">3</text>
<text x="3.556" y="-2.794" size="1.27" layer="51" ratio="10">4</text>
</package>
</packages>
<symbols>
<symbol name="TS2">
<wire x1="0" y1="1.905" x2="0" y2="2.54" width="0.254" layer="94"/>
<wire x1="-4.445" y1="1.905" x2="-3.175" y2="1.905" width="0.254" layer="94"/>
<wire x1="-4.445" y1="-1.905" x2="-3.175" y2="-1.905" width="0.254" layer="94"/>
<wire x1="-4.445" y1="1.905" x2="-4.445" y2="0" width="0.254" layer="94"/>
<wire x1="-4.445" y1="0" x2="-4.445" y2="-1.905" width="0.254" layer="94"/>
<wire x1="-2.54" y1="0" x2="-1.905" y2="0" width="0.1524" layer="94"/>
<wire x1="-1.27" y1="0" x2="-0.635" y2="0" width="0.1524" layer="94"/>
<wire x1="-4.445" y1="0" x2="-3.175" y2="0" width="0.1524" layer="94"/>
<wire x1="2.54" y1="2.54" x2="0" y2="2.54" width="0.1524" layer="94"/>
<wire x1="2.54" y1="-2.54" x2="0" y2="-2.54" width="0.1524" layer="94"/>
<wire x1="0" y1="-2.54" x2="-1.27" y2="1.905" width="0.254" layer="94"/>
<circle x="0" y="-2.54" radius="0.127" width="0.4064" layer="94"/>
<circle x="0" y="2.54" radius="0.127" width="0.4064" layer="94"/>
<text x="-6.35" y="-2.54" size="1.778" layer="95" rot="R90">&gt;NAME</text>
<text x="-3.81" y="3.175" size="1.778" layer="96" rot="R90">&gt;VALUE</text>
<pin name="P" x="0" y="-5.08" visible="pad" length="short" direction="pas" swaplevel="2" rot="R90"/>
<pin name="S" x="0" y="5.08" visible="pad" length="short" direction="pas" swaplevel="1" rot="R270"/>
<pin name="S1" x="2.54" y="5.08" visible="pad" length="short" direction="pas" swaplevel="1" rot="R270"/>
<pin name="P1" x="2.54" y="-5.08" visible="pad" length="short" direction="pas" swaplevel="2" rot="R90"/>
</symbol>
</symbols>
<devicesets>
<deviceset name="10-XX" prefix="S" uservalue="yes">
<description>&lt;b&gt;OMRON SWITCH&lt;/b&gt;</description>
<gates>
<gate name="1" symbol="TS2" x="0" y="0"/>
</gates>
<devices>
<device name="" package="B3F-10XX">
<connects>
<connect gate="1" pin="P" pad="3"/>
<connect gate="1" pin="P1" pad="4"/>
<connect gate="1" pin="S" pad="1"/>
<connect gate="1" pin="S1" pad="2"/>
</connects>
<technologies>
<technology name="">
<attribute name="MF" value="" constant="no"/>
<attribute name="MPN" value="B3F-1000" constant="no"/>
<attribute name="OC_FARNELL" value="176432" constant="no"/>
<attribute name="OC_NEWARK" value="36M3542" constant="no"/>
</technology>
</technologies>
</device>
</devices>
</deviceset>
</devicesets>
</library>
<library name="supply1">
<description>&lt;b&gt;Supply Symbols&lt;/b&gt;&lt;p&gt;
 GND, VCC, 0V, +5V, -5V, etc.&lt;p&gt;
 Please keep in mind, that these devices are necessary for the
 automatic wiring of the supply signals.&lt;p&gt;
 The pin name defined in the symbol is identical to the net which is to be wired automatically.&lt;p&gt;
 In this library the device names are the same as the pin names of the symbols, therefore the correct signal names appear next to the supply symbols in the schematic.&lt;p&gt;
 &lt;author&gt;Created by librarian@cadsoft.de&lt;/author&gt;</description>
<packages>
</packages>
<symbols>
<symbol name="GND">
<wire x1="-1.905" y1="0" x2="1.905" y2="0" width="0.254" layer="94"/>
<text x="-2.54" y="-2.54" size="1.778" layer="96">&gt;VALUE</text>
<pin name="GND" x="0" y="2.54" visible="off" length="short" direction="sup" rot="R270"/>
</symbol>
</symbols>
<devicesets>
<deviceset name="GND" prefix="GND">
<description>&lt;b&gt;SUPPLY SYMBOL&lt;/b&gt;</description>
<gates>
<gate name="1" symbol="GND" x="0" y="0"/>
</gates>
<devices>
<device name="">
<technologies>
<technology name=""/>
</technologies>
</device>
</devices>
</deviceset>
</devicesets>
</library>
</libraries>
<attributes>
</attributes>
<variantdefs>
</variantdefs>
<classes>
<class number="0" name="default" width="0" drill="0">
</class>
</classes>
<parts>
<part name="PAD1" library="wirepad" deviceset="WIREPAD" device="4,16O1,6" value="1"/>
<part name="PAD2" library="wirepad" deviceset="WIREPAD" device="4,16O1,6" value="2"/>
<part name="PAD3" library="wirepad" deviceset="WIREPAD" device="4,16O1,6" value="3"/>
<part name="PAD4" library="wirepad" deviceset="WIREPAD" device="4,16O1,6" value="4"/>
<part name="PAD5" library="wirepad" deviceset="WIREPAD" device="4,16O1,6" value="GND"/>
<part name="S1" library="switch-omron" deviceset="10-XX" device=""/>
<part name="S2" library="switch-omron" deviceset="10-XX" device="">
<attribute name="MF" value=""/>
<attribute name="MPN" value="B3F-1000"/>
<attribute name="OC_FARNELL" value="176432"/>
<attribute name="OC_NEWARK" value="36M3542"/>
</part>
<part name="S3" library="switch-omron" deviceset="10-XX" device="">
<attribute name="MF" value=""/>
<attribute name="MPN" value="B3F-1000"/>
<attribute name="OC_FARNELL" value="176432"/>
<attribute name="OC_NEWARK" value="36M3542"/>
</part>
<part name="S4" library="switch-omron" deviceset="10-XX" device="">
<attribute name="MF" value=""/>
<attribute name="MPN" value="B3F-1000"/>
<attribute name="OC_FARNELL" value="176432"/>
<attribute name="OC_NEWARK" value="36M3542"/>
</part>
<part name="GND1" library="supply1" deviceset="GND" device=""/>
<part name="GND2" library="supply1" deviceset="GND" device=""/>
<part name="GND3" library="supply1" deviceset="GND" device=""/>
<part name="GND4" library="supply1" deviceset="GND" device=""/>
<part name="GND5" library="supply1" deviceset="GND" device=""/>
</parts>
<sheets>
<sheet>
<plain>
</plain>
<instances>
<instance part="PAD1" gate="G$1" x="48.26" y="220.98"/>
<instance part="PAD2" gate="G$1" x="48.26" y="210.82"/>
<instance part="PAD3" gate="G$1" x="48.26" y="198.12"/>
<instance part="PAD4" gate="G$1" x="48.26" y="185.42"/>
<instance part="PAD5" gate="G$1" x="48.26" y="177.8"/>
<instance part="S1" gate="1" x="93.98" y="223.52" rot="R270"/>
<instance part="S2" gate="1" x="76.2" y="210.82" rot="R270"/>
<instance part="S3" gate="1" x="96.52" y="198.12" rot="R270"/>
<instance part="S4" gate="1" x="76.2" y="185.42" rot="R270"/>
<instance part="GND1" gate="1" x="58.42" y="175.26"/>
<instance part="GND2" gate="1" x="81.28" y="180.34"/>
<instance part="GND3" gate="1" x="101.6" y="190.5"/>
<instance part="GND4" gate="1" x="81.28" y="203.2"/>
<instance part="GND5" gate="1" x="99.06" y="215.9"/>
</instances>
<busses>
</busses>
<nets>
<net name="N$2" class="0">
<segment>
<pinref part="PAD4" gate="G$1" pin="P"/>
<wire x1="50.8" y1="185.42" x2="71.12" y2="185.42" width="0.1524" layer="91"/>
<pinref part="S4" gate="1" pin="P"/>
</segment>
</net>
<net name="N$4" class="0">
<segment>
<pinref part="PAD1" gate="G$1" pin="P"/>
<wire x1="88.9" y1="220.98" x2="50.8" y2="220.98" width="0.1524" layer="91"/>
<pinref part="S1" gate="1" pin="P1"/>
</segment>
</net>
<net name="N$26" class="0">
<segment>
<pinref part="PAD2" gate="G$1" pin="P"/>
<wire x1="50.8" y1="210.82" x2="71.12" y2="210.82" width="0.1524" layer="91"/>
<pinref part="S2" gate="1" pin="P"/>
</segment>
</net>
<net name="N$1" class="0">
<segment>
<pinref part="S3" gate="1" pin="P"/>
<pinref part="PAD3" gate="G$1" pin="P"/>
<wire x1="50.8" y1="198.12" x2="91.44" y2="198.12" width="0.1524" layer="91"/>
</segment>
</net>
<net name="GND" class="0">
<segment>
<pinref part="S4" gate="1" pin="S1"/>
<pinref part="GND2" gate="1" pin="GND"/>
<pinref part="S4" gate="1" pin="S"/>
<wire x1="81.28" y1="185.42" x2="81.28" y2="182.88" width="0.1524" layer="91"/>
<junction x="81.28" y="182.88"/>
</segment>
<segment>
<pinref part="S3" gate="1" pin="S1"/>
<pinref part="GND3" gate="1" pin="GND"/>
<wire x1="101.6" y1="195.58" x2="101.6" y2="193.04" width="0.1524" layer="91"/>
<pinref part="S3" gate="1" pin="S"/>
<wire x1="101.6" y1="198.12" x2="101.6" y2="195.58" width="0.1524" layer="91"/>
<junction x="101.6" y="195.58"/>
</segment>
<segment>
<pinref part="S2" gate="1" pin="S"/>
<pinref part="GND4" gate="1" pin="GND"/>
<pinref part="S2" gate="1" pin="S1"/>
<junction x="81.28" y="208.28"/>
<wire x1="81.28" y1="210.82" x2="81.28" y2="208.28" width="0.1524" layer="91"/>
<junction x="81.28" y="210.82"/>
<wire x1="81.28" y1="208.28" x2="81.28" y2="205.74" width="0.1524" layer="91"/>
</segment>
<segment>
<pinref part="S1" gate="1" pin="S"/>
<pinref part="GND5" gate="1" pin="GND"/>
<wire x1="99.06" y1="223.52" x2="99.06" y2="220.98" width="0.1524" layer="91"/>
<pinref part="S1" gate="1" pin="S1"/>
<junction x="99.06" y="220.98"/>
<wire x1="99.06" y1="220.98" x2="99.06" y2="218.44" width="0.1524" layer="91"/>
</segment>
<segment>
<pinref part="PAD5" gate="G$1" pin="P"/>
<pinref part="GND1" gate="1" pin="GND"/>
<wire x1="50.8" y1="177.8" x2="58.42" y2="177.8" width="0.1524" layer="91"/>
</segment>
</net>
</nets>
</sheet>
</sheets>
</schematic>
</drawing>
</eagle>
