%!PS-Adobe-3.0 EPSF-3.0
%%Title: EAGLE Drawing /home/ion/Arduino/_projects/BRAIN-RING/Eagle/Brags005MainPads/pult_main_pads.brd
%%Creator: EAGLE
%%Pages: 1
%%BoundingBox: 0 0 576 810
%%EndComments

% Coordinate transfer:

/EU { 254 div 0.072 mul } def
/inch { 72 mul } def

% Linestyle:

1 setlinecap
1 setlinejoin

% Drawing functions:

/l {  % draw a line
   /lw exch def
   /y2 exch def
   /x2 exch def
   /y1 exch def
   /x1 exch def
   newpath
   x1 EU y1 EU moveto
   x2 EU y2 EU lineto
   lw EU setlinewidth
   stroke
   } def

/h {  % draw a hole
   /d  exch def
   /y  exch def
   /x  exch def
   d 0 gt {
     newpath
     x EU y EU d 2 div EU 0 360 arc
     currentgray dup
     1 exch sub setgray
     fill
     setgray
     } if
   } def

/b {  % draw a bar
   /an exch def
   /y2 exch def
   /x2 exch def
   /y1 exch def
   /x1 exch def
   /w2 x2 x1 sub 2 div EU def
   /h2 y2 y1 sub 2 div EU def
   gsave
   x1 x2 add 2 div EU y1 y2 add 2 div EU translate
   an rotate
   newpath
   w2     h2     moveto
   w2 neg h2     lineto
   w2 neg h2 neg lineto
   w2     h2 neg lineto
   closepath
   fill
   grestore
   } def

/c {  % draw a circle
   /lw exch def
   /rd exch def
   /y  exch def
   /x  exch def
   newpath
   lw EU setlinewidth
   x EU y EU rd EU 0 360 arc
   stroke
   } def

/a {  % draw an arc
   /lc exch def
   /ae exch def
   /as exch def
   /lw exch def
   /rd exch def
   /y  exch def
   /x  exch def
   lw rd 2 mul gt {
     /rd rd lw 2 div add 2 div def
     /lw rd 2 mul def
     } if
   currentlinecap currentlinejoin
   lc setlinecap 0 setlinejoin
   newpath
   lw EU setlinewidth
   x EU y EU rd EU as ae arc
   stroke
   setlinejoin setlinecap
   } def

/p {  % draw a pie
   /d exch def
   /y exch def
   /x exch def
   newpath
   x EU y EU d 2 div EU 0 360 arc
   fill
   } def

/edge { 0.20710678119 mul } def

/o {  % draw an octagon
   /an exch def
   /dy exch def
   /dx exch def
   /y  exch def
   /x  exch def
   gsave
   x EU y EU translate
   an dx dy lt { 90 add /dx dy /dy dx def def } if rotate
   newpath
      0 dx 2 div sub EU                    0 dy edge  add EU moveto
      0 dx dy sub 2 div sub dy edge sub EU 0 dy 2 div add EU lineto
      0 dx dy sub 2 div add dy edge add EU 0 dy 2 div add EU lineto
      0 dx 2 div add EU                    0 dy edge  add EU lineto
      0 dx 2 div add EU                    0 dy edge  sub EU lineto
      0 dx dy sub 2 div add dy edge add EU 0 dy 2 div sub EU lineto
      0 dx dy sub 2 div sub dy edge sub EU 0 dy 2 div sub EU lineto
      0 dx 2 div sub EU                    0 dy edge  sub EU lineto
   closepath
   fill
   grestore
   } def

% the real drawing size:

/MinDrawX      0 EU def
/MinDrawY      0 EU def
/MaxDrawX 654885 EU def
/MaxDrawY 572080 EU def

% the usable page size:

/LeftMargin 0.25 inch def  % change these if drawing gets clipped!
/BotMargin  0.25 inch def
/PageWidth   7.7500 inch def
/PageHeight 11.0000 inch def

% are we going to rotate?:

/RotateDrawing 0 0 ne def

% Media size functions:

/AbortMessage {  % Show a message in a box and stop printing
   /h 100 def
   /Courier findfont 12 scalefont setfont
   mediawidth pagemargin sub h 1 setpage
   newpath
   0 0 moveto
   0 h rlineto
   mediawidth pagemargin sub 0 rlineto
   0 h neg rlineto
   closepath
   5 setlinewidth
   stroke
   newpath 50 60 moveto (ERROR: Jobsize exceeds physical printing area!) show
   newpath 50 40 moveto (       Job has been aborted!) show
   showpage
   stop
   } def

/SelectPage {  % Select the page identified by Row and Column
   /Column exch def
   /Row    exch def

   % the actually exposed area (if the machine knows these parameters!):

   /DrawX MaxDrawX MinDrawX sub def
   /DrawY MaxDrawY MinDrawY sub def
   statusdict /setpage known
   statusdict /mediawidth known and
   statusdict /medialength known and
   statusdict /pagemargin known and {
      % this is for machines that can tell the media size:
      statusdict begin
         /MediaW mediawidth pagemargin sub def
         DrawX DrawY ge {
            DrawX MediaW le DrawY medialength le and {
               MediaW DrawY 1 setpage
               MediaW DrawX sub 2 div 0 translate
               }{
            DrawY MediaW le DrawX medialength le and {
               MediaW DrawX 0 setpage
               0 MediaW DrawY sub 2 div translate
               }{
               AbortMessage
               } ifelse
               } ifelse
            }{
            DrawY MediaW le DrawX medialength le and {
               MediaW DrawX 0 setpage
               0 MediaW DrawY sub 2 div translate
               }{
            DrawX MediaW le DrawY medialength le and {
               MediaW DrawY 1 setpage
               MediaW DrawX sub 2 div 0 translate
               }{
               AbortMessage
               } ifelse
               } ifelse
            } ifelse
         end
      }{
      % this is for machines that can NOT tell the media size:
      % (Ghostscript doesn't like this!)
      /Product product length string def
      /i 0 def
      product { dup 97 lt { 32 add } if Product exch i exch put /i i 1 add def } forall 
      Product (ghostscript) search dup /IsGhostscript exch def
      { pop pop } if
      pop
      IsGhostscript not {
         statusdict /setpage known {
            statusdict begin
               RotateDrawing {
                  LeftMargin PageHeight add BotMargin DrawY add
                  }{
                  BotMargin DrawY add LeftMargin DrawX add 
                  } ifelse
               0 setpage
               end
            } if
         } if
      % set clipping boundary:
      newpath
      LeftMargin BotMargin moveto
      0 PageHeight rlineto
      PageWidth  0 rlineto
      0 PageHeight neg rlineto
      closepath
      clip
      % set the origin:
      LeftMargin BotMargin translate
      RotateDrawing {
         0 PageHeight translate
         -90 rotate
         PageHeight Column mul neg PageWidth Row mul neg translate
         }{
         PageWidth Column mul neg PageHeight Row mul neg translate
         } ifelse
      } ifelse
   % move the lower left corner of the drawing to the origin:
   MinDrawX neg MinDrawY neg translate
   
   % Linestyle:
   
   1 setlinecap
   1 setlinejoin
   
   } def

% TheDrawing

gsave 0 0 SelectPage
20345 2540 652345 3540 0 l
652345 3540 650345 569540 0 l
650345 569540 18345 568540 0 l
18345 568540 20345 2540 0 l
179869 302446 192569 308034 0.0 b
179869 294446 192569 300034 0.0 b
179869 286446 192569 292034 0.0 b
179869 278446 192569 284034 0.0 b
179869 270446 192569 276034 0.0 b
179869 262446 192569 268034 0.0 b
179869 254446 192569 260034 0.0 b
179869 246446 192569 252034 0.0 b
198351 227964 203939 240664 0.0 b
206351 227964 211939 240664 0.0 b
214351 227964 219939 240664 0.0 b
222351 227964 227939 240664 0.0 b
230351 227964 235939 240664 0.0 b
238351 227964 243939 240664 0.0 b
246351 227964 251939 240664 0.0 b
254351 227964 259939 240664 0.0 b
265721 246446 278421 252034 0.0 b
265721 254446 278421 260034 0.0 b
265721 262446 278421 268034 0.0 b
265721 270446 278421 276034 0.0 b
265721 278446 278421 284034 0.0 b
265721 286446 278421 292034 0.0 b
265721 294446 278421 300034 0.0 b
265721 302446 278421 308034 0.0 b
254351 313816 259939 326516 0.0 b
246351 313816 251939 326516 0.0 b
238351 313816 243939 326516 0.0 b
230351 313816 235939 326516 0.0 b
222351 313816 227939 326516 0.0 b
214351 313816 219939 326516 0.0 b
206351 313816 211939 326516 0.0 b
198351 313816 203939 326516 0.0 b
538165 38825 554165 56855 0.0 b
509725 38825 525725 56855 0.0 b
365565 120825 381565 138855 0.0 b
337125 120825 353125 138855 0.0 b
218245 393745 234245 411775 90.0 b
218245 365305 234245 383335 90.0 b
433877 226130 440481 246450 90.0 b
372409 226130 379013 246450 90.0 b
433877 238830 440481 259150 90.0 b
433877 251530 440481 271850 90.0 b
372409 238830 379013 259150 90.0 b
372409 251530 379013 271850 90.0 b
433877 264230 440481 284550 90.0 b
372409 264230 379013 284550 90.0 b
433877 276930 440481 297250 90.0 b
372409 276930 379013 297250 90.0 b
433877 289630 440481 309950 90.0 b
433877 302330 440481 322650 90.0 b
372409 289630 379013 309950 90.0 b
372409 302330 379013 322650 90.0 b
433877 315030 440481 335350 90.0 b
372409 315030 379013 335350 90.0 b
528165 276825 544165 294855 0.0 b
499725 276825 515725 294855 0.0 b
537365 64825 553365 82855 0.0 b
508925 64825 524925 82855 0.0 b
527565 303825 543565 321855 0.0 b
499125 303825 515125 321855 0.0 b
535765 94825 551765 112855 0.0 b
507325 94825 523325 112855 0.0 b
524965 335825 540965 353855 0.0 b
496525 335825 512525 353855 0.0 b
535165 123825 551165 141855 0.0 b
506725 123825 522725 141855 0.0 b
525165 363325 541165 381355 0.0 b
496725 363325 512725 381355 0.0 b
531365 157325 547365 175355 0.0 b
502925 157325 518925 175355 0.0 b
530565 186325 546565 204355 0.0 b
502125 186325 518125 204355 0.0 b
532765 219325 548765 237355 0.0 b
504325 219325 520325 237355 0.0 b
530965 246325 546965 264355 0.0 b
502525 246325 518525 264355 0.0 b
525165 391325 541165 409355 0.0 b
496725 391325 512725 409355 0.0 b
524365 419325 540365 437355 0.0 b
495925 419325 511925 437355 0.0 b
524565 449325 540565 467355 0.0 b
496125 449325 512125 467355 0.0 b
524765 478325 540765 496355 0.0 b
496325 478325 512325 496355 0.0 b
420245 106140 13208 13208 0.0 o
439295 93440 13208 13208 0.0 o
420245 80740 13208 13208 0.0 o
80445 339340 96445 357340 270.0 b
80445 311340 96445 329340 270.0 b
72245 140940 88245 158940 90.0 b
72245 168940 88245 186940 90.0 b
89033 220640 77857 220640 11176 l
89033 271440 77857 271440 11176 l
368945 427640 384945 445640 0.0 b
396945 427640 412945 445640 0.0 b
370145 460640 386145 478640 0.0 b
398145 460640 414145 478640 0.0 b
328145 432905 344145 450935 270.0 b
328145 461345 344145 479375 270.0 b
67325 381225 83325 399255 180.0 b
95765 381225 111765 399255 180.0 b
227645 83105 243645 101135 270.0 b
227645 111545 243645 129575 270.0 b
258645 83905 274645 101935 270.0 b
258645 112345 274645 130375 270.0 b
286145 83705 302145 101735 270.0 b
286145 112145 302145 130175 270.0 b
73525 514225 89525 532255 180.0 b
101965 514225 117965 532255 180.0 b
73325 483225 89325 501255 180.0 b
101765 483225 117765 501255 180.0 b
71125 453225 87125 471255 180.0 b
99565 453225 115565 471255 180.0 b
68925 417225 84925 435255 180.0 b
97365 417225 113365 435255 180.0 b
137145 179240 17000 p
137145 103040 17000 p
581995 36840 594695 62240 90.0 b
580995 62840 593695 88240 90.0 b
580995 90840 593695 116240 90.0 b
579995 120840 592695 146240 90.0 b
579995 152840 592695 178240 90.0 b
579995 181840 592695 207240 90.0 b
578995 212840 591695 238240 90.0 b
577995 242840 590695 268240 90.0 b
575995 273840 588695 299240 270.0 b
576995 300840 589695 326240 270.0 b
575995 328840 588695 354240 270.0 b
576995 358840 589695 384240 270.0 b
574995 385840 587695 411240 270.0 b
573995 412840 586695 438240 270.0 b
573995 444840 586695 470240 270.0 b
573995 475840 586695 501240 270.0 b
628995 259840 641695 285240 0.0 b
306995 502840 319695 528240 0.0 b
284995 502840 297695 528240 0.0 b
263995 502840 276695 528240 0.0 b
185995 49840 198695 75240 0.0 b
398995 505840 411695 531240 0.0 b
33995 510840 46695 536240 90.0 b
34995 481840 47695 507240 90.0 b
34995 449840 47695 475240 270.0 b
35995 412840 48695 438240 270.0 b
35995 377840 48695 403240 270.0 b
228995 45840 241695 71240 0.0 b
259995 44840 272695 70240 0.0 b
286995 45840 299695 71240 180.0 b
342995 160840 355695 186240 180.0 b
373995 160840 386695 186240 180.0 b
404995 160840 417695 186240 180.0 b
187995 501840 200695 527240 180.0 b
218995 501840 231695 527240 180.0 b
237995 502840 250695 528240 180.0 b
130995 52840 143695 78240 180.0 b
71995 54840 84695 80240 180.0 b
337995 505840 350695 531240 180.0 b
419995 35840 432695 61240 270.0 b
375711 274390 345495 274390 6096 l
345495 274390 345345 274540 6096 l
437179 325190 437179 347374 6096 l
437179 347374 437345 347540 6096 l
432313 342508 442377 352572 0.0 b
340313 269508 350377 279572 0.0 b
404945 436640 410245 436640 6096 l
410245 436640 429345 417540 6096 l
429345 417540 429345 416540 6096 l
429345 416540 438345 407540 6096 l
438345 407540 438345 348540 6096 l
438345 348540 437345 347540 6096 l
404945 436640 404945 468440 6096 l
404945 468440 406145 469640 6096 l
406145 469640 406145 517740 6096 l
406145 517740 405345 518540 6096 l
272071 281240 245045 281240 6096 l
245045 281240 239345 275540 6096 l
239345 275540 221345 275540 6096 l
221345 275540 218345 272540 6096 l
218345 272540 205345 272540 6096 l
205345 272540 199345 272540 6096 l
199345 272540 198345 273540 6096 l
198345 273540 186519 273540 6096 l
186519 273540 186219 273240 6096 l
88445 348340 43545 340440 6096 l
86345 352540 83345 348440 6096 l
83345 348440 88445 348340 6096 l
163645 289240 162345 290540 6096 l
162345 290540 160345 291540 6096 l
160345 291540 122345 342540 6096 l
122345 342540 108345 344540 6096 l
108345 344540 88345 352540 6096 l
86345 352540 88345 352540 6096 l
186219 289240 201645 289240 6096 l
201645 289240 206345 284540 6096 l
206345 284540 206345 273540 6096 l
206345 273540 205345 272540 6096 l
244345 515540 244345 550540 10160 l
244345 550540 249345 555540 10160 l
249345 555540 402345 555540 10160 l
402345 555540 405345 552540 10160 l
405345 552540 405345 518540 10160 l
635345 272540 635345 530540 10160 l
635345 530540 609345 556540 10160 l
609345 556540 409345 556540 10160 l
409345 556540 405345 552540 10160 l
396345 20540 617345 20540 10160 l
617345 20540 638345 41540 10160 l
638345 41540 638345 269540 10160 l
638345 269540 635345 272540 10160 l
396345 20540 395345 21540 10160 l
395345 21540 375345 41540 10160 l
375345 41540 375345 79540 10160 l
375345 79540 398345 102540 10160 l
398345 102540 414345 102540 10160 l
414345 102540 418345 106540 10160 l
43545 340440 42545 158340 10160 l
42545 158340 63345 146540 10160 l
63345 146540 76345 146540 10160 l
76345 146540 79345 149540 10160 l
79345 149540 79345 147540 10160 l
79345 149540 79345 150540 10160 l
80245 149940 80245 68440 10160 l
80245 68440 78345 66540 10160 l
78345 66540 78345 41540 10160 l
78345 41540 101345 18540 10160 l
101345 18540 392345 18540 10160 l
392345 18540 395345 21540 10160 l
186219 289240 163645 289240 4064 l
375711 236290 390095 236290 6096 l
390095 236290 396345 242540 6096 l
396345 242540 396345 309540 6096 l
396345 309540 394345 311540 6096 l
394345 311540 376661 311540 6096 l
376661 311540 375711 312490 6096 l
378145 469640 378145 469740 6096 l
378145 469740 377345 470540 6096 l
377345 470540 377345 437040 6096 l
377345 437040 376945 436640 6096 l
376945 436640 376945 395940 6096 l
376945 395940 405345 367540 6096 l
405345 367540 405345 322540 6096 l
405345 322540 394345 311540 6096 l
328865 436640 336145 441920 6096 l
376945 436640 372445 436640 6096 l
372445 436640 345345 409540 6096 l
345345 409540 345345 432720 6096 l
345345 432720 336145 441920 6096 l
340313 404508 350377 414572 0.0 b
154045 281240 143345 270540 6096 l
138313 265508 148377 275572 0.0 b
148645 265240 143345 270540 6096 l
137145 179240 163645 179240 10160 l
163645 179240 194345 148540 10160 l
194345 148540 194345 64540 10160 l
194345 64540 192345 62540 10160 l
186219 281240 154045 281240 4064 l
186219 265240 148645 265240 4064 l
257145 234314 257145 233740 6096 l
257145 233740 269345 221540 6096 l
269345 221540 315345 221540 6096 l
315345 221540 342345 194540 6096 l
342345 194540 373345 194540 6096 l
373345 194540 381345 186540 6096 l
381345 186540 381345 174540 6096 l
381345 174540 380345 173540 6096 l
272071 249240 305645 249240 6096 l
305645 249240 339345 215540 6096 l
339345 215540 340345 215540 6096 l
402345 206540 411345 197540 6096 l
411345 197540 411345 173540 6096 l
340345 215540 349345 206540 6096 l
349345 206540 402345 206540 6096 l
249145 217740 257345 209540 6096 l
257345 209540 308345 209540 6096 l
308345 209540 331345 186540 6096 l
331345 186540 331345 185540 6096 l
331345 185540 340345 176540 6096 l
340345 176540 346345 176540 6096 l
346345 176540 349345 173540 6096 l
249145 217740 249145 234314 4064 l
225145 373220 226245 374320 6096 l
194345 514540 194345 386540 6096 l
194345 386540 206345 374540 6096 l
206345 374540 222345 374540 6096 l
222345 374540 223345 373540 6096 l
223345 373540 224345 373540 6096 l
224345 373540 225465 373540 6096 l
225465 373540 226245 374320 6096 l
225145 320166 225145 372340 4064 l
225145 372340 225345 372540 4064 l
225345 372540 224345 373540 4064 l
375711 261690 336195 261690 6096 l
336195 261690 323345 274540 6096 l
323345 274540 323345 291540 6096 l
323345 291540 311345 303540 6096 l
311345 303540 306345 303540 6096 l
306345 303540 303345 306540 6096 l
273371 306540 303345 306540 4064 l
375711 299790 357095 299790 6096 l
357095 299790 345345 311540 6096 l
290645 297240 299345 288540 6096 l
294313 283508 304377 293572 0.0 b
340313 344508 350377 354572 0.0 b
345345 349540 345345 311540 6096 l
290645 297240 272071 297240 4064 l
249145 334340 253345 338540 6096 l
253345 338540 268345 338540 6096 l
268345 338540 309345 379540 6096 l
309345 379540 309345 492540 6096 l
309345 492540 312345 495540 6096 l
312345 495540 312345 512540 6096 l
312345 512540 314345 514540 6096 l
249145 320166 249145 334340 4064 l
241145 342340 258345 359540 6096 l
258345 359540 265345 359540 6096 l
265345 359540 291345 385540 6096 l
291345 385540 291345 515540 6096 l
241145 342340 241145 320166 4064 l
270345 515540 270345 387540 6096 l
270345 387540 233345 350540 6096 l
233345 320366 233345 350540 4064 l
257145 320166 315719 320166 6096 l
315719 320166 348345 287540 6096 l
348345 287540 376345 287540 6096 l
375345 286540 376345 287540 6096 l
75325 390240 42645 390240 6096 l
42645 390240 42345 390540 6096 l
235645 92120 235645 58840 6096 l
235645 58840 235345 58540 6096 l
266645 92920 266645 57840 6096 l
266645 57840 266345 57540 6096 l
294145 92720 294145 59340 6096 l
294145 59340 293345 58540 6096 l
234345 214540 231345 214540 6096 l
231345 214540 225345 220540 6096 l
234345 214540 235345 214540 8128 l
235345 214540 254345 195540 8128 l
254345 195540 302345 195540 8128 l
302345 195540 318345 179540 8128 l
318345 179540 318345 173540 8128 l
318345 173540 330345 161540 8128 l
330345 161540 330345 144620 8128 l
330345 144620 345125 129840 8128 l
225345 220540 225345 234114 4064 l
375711 248990 353795 248990 8128 l
353795 248990 352345 247540 8128 l
352345 247540 352345 226540 8128 l
352345 226540 359345 219540 8128 l
359345 219540 442345 219540 8128 l
442345 219540 448345 213540 8128 l
448345 213540 448345 184540 8128 l
448345 184540 461345 171540 8128 l
461345 171540 461345 133540 8128 l
461345 133540 480345 114540 8128 l
480345 114540 480345 83540 8128 l
480345 83540 491345 72540 8128 l
491345 72540 515625 72540 8128 l
515625 72540 516925 73840 8128 l
516925 73840 516925 48640 8128 l
516925 48640 517725 47840 8128 l
459595 236290 469345 226540 8128 l
469345 226540 469345 194540 8128 l
469345 194540 481345 182540 8128 l
481345 182540 481345 144540 8128 l
481345 144540 493345 132540 8128 l
493345 132540 514425 132540 8128 l
514425 132540 514725 132840 8128 l
514725 132840 514725 104440 8128 l
514725 104440 515325 103840 8128 l
437179 236290 459595 236290 4064 l
474895 248990 487345 236540 8128 l
487345 236540 487345 203540 8128 l
487345 203540 493345 197540 8128 l
493345 197540 507925 197540 8128 l
507925 197540 510125 195340 8128 l
510125 195340 510125 167140 8128 l
510125 167140 510925 166340 8128 l
474895 248990 437179 248990 4064 l
483195 261690 488345 256540 8128 l
488345 256540 509325 256540 8128 l
509325 256540 510525 255340 8128 l
510525 255340 510525 230140 8128 l
510525 230140 512325 228340 8128 l
437179 261690 483195 261690 4064 l
507725 285840 507725 312240 10160 l
507725 312240 507125 312840 10160 l
505425 283540 507725 285840 8128 l
467195 274390 473195 274390 6096 l
473195 274390 482345 283540 6096 l
482345 283540 505425 283540 6096 l
467195 274390 437179 274390 4064 l
465895 287090 485345 306540 8128 l
485345 306540 485345 339540 8128 l
485345 339540 490345 344540 8128 l
490345 344540 504225 344540 8128 l
504225 344540 504525 344840 8128 l
504525 344840 504525 372140 8128 l
504525 372140 504725 372340 8128 l
437179 287090 465895 287090 4064 l
454595 299790 469345 314540 8128 l
469345 314540 469345 386540 8128 l
469345 386540 481345 398540 8128 l
481345 398540 502925 398540 8128 l
502925 398540 504725 400340 8128 l
504725 400340 504725 427540 8128 l
504725 427540 503925 428340 8128 l
437179 299790 454595 299790 4064 l
504325 487340 504325 458540 8128 l
504325 458540 504125 458340 8128 l
504125 458340 483145 458340 8128 l
483145 458340 476345 451540 8128 l
476345 451540 476345 412540 6096 l
476345 412540 458345 394540 6096 l
437179 312490 449295 312490 6096 l
449295 312490 458345 321540 6096 l
458345 321540 458345 394540 6096 l
546165 47840 586645 47840 6096 l
586645 47840 588345 49540 6096 l
587345 75540 547065 75540 6096 l
547065 75540 545365 73840 6096 l
543765 103840 587045 103840 6096 l
587045 103840 587345 103540 6096 l
543165 132840 585645 132840 10160 l
585645 132840 586345 133540 10160 l
586345 165540 540165 165540 10160 l
540165 165540 539365 166340 10160 l
538565 195340 585545 195340 10160 l
585545 195340 586345 194540 10160 l
585345 225540 543565 225540 10160 l
543565 225540 540765 228340 10160 l
538965 255340 588545 255340 10160 l
588545 255340 589345 254540 10160 l
589345 254540 585345 254540 10160 l
585345 254540 584345 255540 10160 l
536165 285840 581645 285840 10160 l
581645 285840 582345 286540 10160 l
535565 312840 582645 312840 10160 l
582645 312840 583345 313540 10160 l
532965 344840 564045 344840 8128 l
564045 344840 565345 343540 8128 l
565345 343540 580345 343540 8128 l
580345 343540 582345 341540 8128 l
583345 371540 533965 371540 8128 l
533965 371540 533165 372340 8128 l
533165 400340 579545 400340 8128 l
579545 400340 581345 398540 8128 l
580345 425540 535165 425540 8128 l
535165 425540 532365 428340 8128 l
580345 457540 533365 457540 8128 l
533365 457540 532565 458340 8128 l
532765 487340 579145 487340 8128 l
579145 487340 580345 488540 8128 l
83445 271440 83745 288440 6096 l
83745 288440 88445 320340 6096 l
168045 257240 161345 250540 6096 l
161345 250540 132345 250540 6096 l
132345 250540 119345 263540 6096 l
119345 263540 103345 263540 6096 l
103345 263540 83445 271440 6096 l
186219 257240 168045 257240 4064 l
80245 177940 81445 220640 6096 l
81445 220640 83445 220640 6096 l
83445 220640 167619 230640 6096 l
167619 230640 186219 249240 6096 l
344345 518540 344345 478560 6096 l
344345 478560 336145 470360 6096 l
420245 80740 420245 54640 10160 l
420245 54640 426345 48540 10160 l
373565 129840 401645 129840 8128 l
401645 129840 408345 136540 8128 l
408345 136540 431345 136540 8128 l
431345 136540 444345 123540 8128 l
444345 123540 444345 98490 8128 l
444345 98490 439295 93440 8128 l
291145 124160 294145 121160 6096 l
217145 211740 222345 206540 6096 l
222345 206540 223345 206540 6096 l
223345 206540 248345 181540 6096 l
248345 181540 282345 181540 6096 l
282345 181540 297345 166540 6096 l
297345 166540 297345 124360 6096 l
297345 124360 294145 121160 6096 l
217145 211740 217145 234314 4064 l
266645 121360 266645 167240 6096 l
266645 167240 265345 168540 6096 l
265345 168540 243345 168540 6096 l
243345 168540 209345 202540 6096 l
209345 202540 209345 234114 4064 l
201145 193740 235345 159540 6096 l
235345 159540 235345 120860 6096 l
235345 120860 235645 120560 6096 l
201145 193740 201145 234314 4064 l
81525 523240 40645 523240 6096 l
40645 523240 40345 523540 6096 l
217145 345740 203345 359540 6096 l
203345 359540 203345 362540 6096 l
203345 362540 180345 385540 6096 l
180345 385540 180345 500540 6096 l
180345 500540 176345 504540 6096 l
176345 504540 176345 517540 6096 l
109965 523240 170645 523240 6096 l
170645 523240 176345 517540 6096 l
217145 345740 217145 320166 4064 l
209145 339740 167345 381540 6096 l
167345 381540 167345 482540 6096 l
167345 482540 161345 488540 6096 l
161345 488540 113465 488540 6096 l
113465 488540 109765 492240 6096 l
209145 320166 209145 339740 4064 l
79125 462240 41645 462240 6096 l
41645 462240 41345 462540 6096 l
41345 494540 79025 494540 6096 l
79025 494540 81325 492240 6096 l
201145 331740 155345 377540 6096 l
155345 377540 155345 452540 6096 l
107565 462240 145645 462240 6096 l
145645 462240 155345 452540 6096 l
201145 331740 201145 320166 4064 l
186219 305240 186219 327666 6096 l
186219 327666 140345 373540 6096 l
140345 373540 140345 418540 6096 l
140345 418540 136345 422540 6096 l
136345 422540 109065 422540 6096 l
109065 422540 105365 426240 6096 l
42345 425540 76225 425540 6096 l
76225 425540 76925 426240 6096 l
174645 297240 171345 300540 6096 l
171345 300540 171345 326540 6096 l
171345 326540 127345 370540 6096 l
127345 370540 127345 381540 6096 l
127345 381540 122345 386540 6096 l
122345 386540 107465 386540 6096 l
107465 386540 103765 390240 6096 l
186219 297240 174645 297240 4064 l
137345 65540 137345 102840 10160 l
137345 102840 137145 103040 10160 l
226245 402760 226245 515440 6096 l
226245 515440 227345 516540 6096 l
227345 516540 227345 515540 6096 l
227345 515540 225345 513540 6096 l
showpage grestore
